@startuml Diagrama de Componentes Distribuídos

skinparam component {
    ArrowColor DimGray
}

skinparam node {
    BackgroundColor MidnightBlue
    BorderColor DarkBlue
}

skinparam agent {
    BackgroundColor LightGray
    BorderColor DimGray
}

skinparam queue {
    BackgroundColor DarkTurquoise
    BorderColor DarkSlateGray 
}

skinparam NodeFontColor White
skinparam defaultTextAlignment center
skinparam DatabaseBackgroundColor Gray
skinparam defaultArrowColor Gray

rectangle "Food IoT Achitecture" {
    node "Orion \n Context \n Broker" as orion
    agent "IoT Agent" as iotagent
    agent "Node/Express Management App" as mgmt
    agent "Draco" as draco
    queue "IoT Sensors" as sensors
    database "MySQL" as mysql

    cloud "MongoDB Cloud" as mongo {
        database "MongoDB" as mongo1
        database "MongoDB" as mongo2
        database "MongoDB" as mongo3

        mongo1 -l- mongo2
        mongo2 -- mongo3
        mongo1 -r- mongo3
    }

    orion <-l-> mongo
    orion <-down-> iotagent
    iotagent <-right-> mongo
    mgmt <--> orion
    iotagent <--> sensors
    draco <-r- orion
    mysql <-r- draco
}

@enduml